…
### Use `esri2df()` to download tabular data

You can download non-spatial tables of the ‘Table’ layer type using
`esri2df()`.

``` r
df <- esri2df("https://sampleserver1.arcgisonline.com/ArcGIS/rest/services/WaterTemplate/WaterDistributionInventoryReport/MapServer/5", objectIds = paste(1:50, collapse = ","))
#> ✔ Downloading "AssetCondition"
#> Layer type: "Table"

df
#> # A tibble: 50 × 6
#>    OBJECTID FACILITYID FCLASS ASSETCOND CONDDATE REPLSCORE
#>       <int> <chr>      <chr>  <lgl>     <lgl>        <int>
#>  1        1 1          wMain  NA        NA               0
#>  2        2 2          wMain  NA        NA              45
#>  3        3 3          wMain  NA        NA              45
#>  4        4 4          wMain  NA        NA              45
#>  5        5 5          wMain  NA        NA              15
#>  6        6 6          wMain  NA        NA              15
#>  7        7 1          wMain  NA        NA               0
#>  8        8 2          wMain  NA        NA              45
#>  9        9 3          wMain  NA        NA              45
#> 10       10 4          wMain  NA        NA              45
#> # … with 40 more rows
#> # ℹ Use `print(n = ...)` to see more rows
```
…
